[
  {
    "test": "initial_list_load",
    "use_pagination": true,
    "page_size": 1000,
    "execution_time_ms": 80.61385154724121,
    "query_count": 2,
    "status_code": 200,
    "result_count": 50,
    "error": null
  },
  {
    "test": "filter_by_name",
    "use_pagination": true,
    "filter_value": "Paul",
    "execution_time_ms": 268.2182788848877,
    "query_count": 2,
    "status_code": 200,
    "result_count": 50,
    "error": null
  },
  {
    "test": "sort_by_attribute",
    "use_pagination": true,
    "ordering": "-created",
    "execution_time_ms": 63.38691711425781,
    "query_count": 2,
    "status_code": 200,
    "result_count": 50,
    "error": null
  },
  {
    "test": "sort_by_attribute",
    "use_pagination": true,
    "ordering": "relationship__points",
    "execution_time_ms": 1533.5030555725098,
    "query_count": 2,
    "status_code": 200,
    "result_count": 50,
    "error": null
  },
  {
    "test": "sort_by_attribute",
    "use_pagination": true,
    "ordering": "address__city",
    "execution_time_ms": 1536.9911193847656,
    "query_count": 2,
    "status_code": 200,
    "result_count": 50,
    "error": null
  },
  {
    "test": "multi_field_sort",
    "use_pagination": true,
    "ordering": "-relationship__points,last_name,first_name",
    "execution_time_ms": 1647.7692127227783,
    "query_count": 2,
    "status_code": 200,
    "result_count": 50,
    "error": null
  },
  {
    "test": "multi_field_sort",
    "use_pagination": true,
    "ordering": "address__country,address__city,-created",
    "execution_time_ms": 1703.0375003814697,
    "query_count": 2,
    "status_code": 200,
    "result_count": 50,
    "error": null
  },
  {
    "test": "filter_and_sort",
    "use_pagination": true,
    "filter_field": "city",
    "filter_value": "Lake Arthur",
    "ordering": "-relationship__points",
    "execution_time_ms": 96.5428352355957,
    "query_count": 2,
    "status_code": 200,
    "result_count": 50,
    "error": null
  },
  {
    "test": "multiple_filters",
    "use_pagination": true,
    "execution_time_ms": 262.96424865722656,
    "query_count": 2,
    "status_code": 200,
    "result_count": 50,
    "error": null
  },
  {
    "test": "search",
    "use_pagination": true,
    "search_term": "Paul",
    "execution_time_ms": 1694.1144466400146,
    "query_count": 2,
    "status_code": 200,
    "result_count": 50,
    "error": null
  },
  {
    "test": "complex_query",
    "use_pagination": true,
    "execution_time_ms": 211.48180961608887,
    "query_count": 2,
    "status_code": 200,
    "result_count": 50,
    "error": null
  },
  {
    "test": "pagination_selected_pages",
    "page_size": 1000,
    "total_pages_available": 3000,
    "pages_tested": [
      1,
      95,
      452,
      606,
      1257,
      1500,
      1721,
      2464,
      2737,
      2847,
      2870,
      2911,
      3000
    ],
    "total_items": 3000000,
    "total_items_fetched": 650,
    "total_time_ms": 6805.522680282593,
    "avg_time_per_page_ms": 465.7069536355826,
    "min_time_per_page_ms": 70.61338424682617,
    "max_time_per_page_ms": 857.13791847229,
    "total_queries": 26,
    "avg_queries_per_page": 2.0,
    "page_results": [
      {
        "page": 1,
        "execution_time_ms": 70.61338424682617,
        "query_count": 2,
        "result_count": 50,
        "status_code": 200,
        "error": null,
        "total_count": 3000000,
        "has_next": true
      },
      {
        "page": 95,
        "execution_time_ms": 119.61841583251953,
        "query_count": 2,
        "result_count": 50,
        "status_code": 200,
        "error": null,
        "total_count": 3000000,
        "has_next": true
      },
      {
        "page": 452,
        "execution_time_ms": 185.93192100524902,
        "query_count": 2,
        "result_count": 50,
        "status_code": 200,
        "error": null,
        "total_count": 3000000,
        "has_next": true
      },
      {
        "page": 606,
        "execution_time_ms": 223.60968589782715,
        "query_count": 2,
        "result_count": 50,
        "status_code": 200,
        "error": null,
        "total_count": 3000000,
        "has_next": true
      },
      {
        "page": 1257,
        "execution_time_ms": 358.02412033081055,
        "query_count": 2,
        "result_count": 50,
        "status_code": 200,
        "error": null,
        "total_count": 3000000,
        "has_next": true
      },
      {
        "page": 1500,
        "execution_time_ms": 400.05016326904297,
        "query_count": 2,
        "result_count": 50,
        "status_code": 200,
        "error": null,
        "total_count": 3000000,
        "has_next": true
      },
      {
        "page": 1721,
        "execution_time_ms": 468.89352798461914,
        "query_count": 2,
        "result_count": 50,
        "status_code": 200,
        "error": null,
        "total_count": 3000000,
        "has_next": true
      },
      {
        "page": 2464,
        "execution_time_ms": 598.7489223480225,
        "query_count": 2,
        "result_count": 50,
        "status_code": 200,
        "error": null,
        "total_count": 3000000,
        "has_next": true
      },
      {
        "page": 2737,
        "execution_time_ms": 666.9046878814697,
        "query_count": 2,
        "result_count": 50,
        "status_code": 200,
        "error": null,
        "total_count": 3000000,
        "has_next": true
      },
      {
        "page": 2847,
        "execution_time_ms": 803.5068511962891,
        "query_count": 2,
        "result_count": 50,
        "status_code": 200,
        "error": null,
        "total_count": 3000000,
        "has_next": true
      },
      {
        "page": 2870,
        "execution_time_ms": 857.13791847229,
        "query_count": 2,
        "result_count": 50,
        "status_code": 200,
        "error": null,
        "total_count": 3000000,
        "has_next": true
      },
      {
        "page": 2911,
        "execution_time_ms": 641.0720348358154,
        "query_count": 2,
        "result_count": 50,
        "status_code": 200,
        "error": null,
        "total_count": 3000000,
        "has_next": true
      },
      {
        "page": 3000,
        "execution_time_ms": 660.078763961792,
        "query_count": 2,
        "result_count": 50,
        "status_code": 200,
        "error": null,
        "total_count": 3000000,
        "has_next": true
      }
    ]
  }
]