{
  "summary": {
    "page_size": 1000,
    "total_pages_available": 3000,
    "pages_tested": [
      1,
      95,
      452,
      606,
      1257,
      1500,
      1721,
      2464,
      2737,
      2847,
      2870,
      2911,
      3000
    ],
    "total_items": 3000000,
    "total_items_fetched": 650,
    "total_time_ms": 6805.522680282593,
    "avg_time_per_page_ms": 465.7069536355826,
    "min_time_per_page_ms": 70.61338424682617,
    "max_time_per_page_ms": 857.13791847229,
    "total_queries": 26,
    "avg_queries_per_page": 2.0
  },
  "pages": [
    {
      "page": 1,
      "execution_time_ms": 70.61338424682617,
      "query_count": 2,
      "result_count": 50,
      "status_code": 200,
      "error": null,
      "total_count": 3000000,
      "has_next": true
    },
    {
      "page": 95,
      "execution_time_ms": 119.61841583251953,
      "query_count": 2,
      "result_count": 50,
      "status_code": 200,
      "error": null,
      "total_count": 3000000,
      "has_next": true
    },
    {
      "page": 452,
      "execution_time_ms": 185.93192100524902,
      "query_count": 2,
      "result_count": 50,
      "status_code": 200,
      "error": null,
      "total_count": 3000000,
      "has_next": true
    },
    {
      "page": 606,
      "execution_time_ms": 223.60968589782715,
      "query_count": 2,
      "result_count": 50,
      "status_code": 200,
      "error": null,
      "total_count": 3000000,
      "has_next": true
    },
    {
      "page": 1257,
      "execution_time_ms": 358.02412033081055,
      "query_count": 2,
      "result_count": 50,
      "status_code": 200,
      "error": null,
      "total_count": 3000000,
      "has_next": true
    },
    {
      "page": 1500,
      "execution_time_ms": 400.05016326904297,
      "query_count": 2,
      "result_count": 50,
      "status_code": 200,
      "error": null,
      "total_count": 3000000,
      "has_next": true
    },
    {
      "page": 1721,
      "execution_time_ms": 468.89352798461914,
      "query_count": 2,
      "result_count": 50,
      "status_code": 200,
      "error": null,
      "total_count": 3000000,
      "has_next": true
    },
    {
      "page": 2464,
      "execution_time_ms": 598.7489223480225,
      "query_count": 2,
      "result_count": 50,
      "status_code": 200,
      "error": null,
      "total_count": 3000000,
      "has_next": true
    },
    {
      "page": 2737,
      "execution_time_ms": 666.9046878814697,
      "query_count": 2,
      "result_count": 50,
      "status_code": 200,
      "error": null,
      "total_count": 3000000,
      "has_next": true
    },
    {
      "page": 2847,
      "execution_time_ms": 803.5068511962891,
      "query_count": 2,
      "result_count": 50,
      "status_code": 200,
      "error": null,
      "total_count": 3000000,
      "has_next": true
    },
    {
      "page": 2870,
      "execution_time_ms": 857.13791847229,
      "query_count": 2,
      "result_count": 50,
      "status_code": 200,
      "error": null,
      "total_count": 3000000,
      "has_next": true
    },
    {
      "page": 2911,
      "execution_time_ms": 641.0720348358154,
      "query_count": 2,
      "result_count": 50,
      "status_code": 200,
      "error": null,
      "total_count": 3000000,
      "has_next": true
    },
    {
      "page": 3000,
      "execution_time_ms": 660.078763961792,
      "query_count": 2,
      "result_count": 50,
      "status_code": 200,
      "error": null,
      "total_count": 3000000,
      "has_next": true
    }
  ]
}