{
  "summary": {
    "page_size": 1000,
    "total_pages_available": 3000,
    "pages_tested": [
      1,
      558,
      587,
      669,
      801,
      989,
      1333,
      1500,
      1735,
      2199,
      2581,
      2812,
      3000
    ],
    "total_items": 3000000,
    "total_items_fetched": 650,
    "total_time_ms": 5485.543966293335,
    "avg_time_per_page_ms": 372.8478138263409,
    "min_time_per_page_ms": 71.44379615783691,
    "max_time_per_page_ms": 682.7661991119385,
    "total_queries": 26,
    "avg_queries_per_page": 2.0
  },
  "pages": [
    {
      "page": 1,
      "execution_time_ms": 71.44379615783691,
      "query_count": 2,
      "result_count": 50,
      "status_code": 200,
      "error": null,
      "total_count": 3000000,
      "has_next": true
    },
    {
      "page": 558,
      "execution_time_ms": 208.36949348449707,
      "query_count": 2,
      "result_count": 50,
      "status_code": 200,
      "error": null,
      "total_count": 3000000,
      "has_next": true
    },
    {
      "page": 587,
      "execution_time_ms": 204.23555374145508,
      "query_count": 2,
      "result_count": 50,
      "status_code": 200,
      "error": null,
      "total_count": 3000000,
      "has_next": true
    },
    {
      "page": 669,
      "execution_time_ms": 220.8712100982666,
      "query_count": 2,
      "result_count": 50,
      "status_code": 200,
      "error": null,
      "total_count": 3000000,
      "has_next": true
    },
    {
      "page": 801,
      "execution_time_ms": 248.52657318115234,
      "query_count": 2,
      "result_count": 50,
      "status_code": 200,
      "error": null,
      "total_count": 3000000,
      "has_next": true
    },
    {
      "page": 989,
      "execution_time_ms": 289.60275650024414,
      "query_count": 2,
      "result_count": 50,
      "status_code": 200,
      "error": null,
      "total_count": 3000000,
      "has_next": true
    },
    {
      "page": 1333,
      "execution_time_ms": 350.65555572509766,
      "query_count": 2,
      "result_count": 50,
      "status_code": 200,
      "error": null,
      "total_count": 3000000,
      "has_next": true
    },
    {
      "page": 1500,
      "execution_time_ms": 377.46405601501465,
      "query_count": 2,
      "result_count": 50,
      "status_code": 200,
      "error": null,
      "total_count": 3000000,
      "has_next": true
    },
    {
      "page": 1735,
      "execution_time_ms": 425.6870746612549,
      "query_count": 2,
      "result_count": 50,
      "status_code": 200,
      "error": null,
      "total_count": 3000000,
      "has_next": true
    },
    {
      "page": 2199,
      "execution_time_ms": 521.2087631225586,
      "query_count": 2,
      "result_count": 50,
      "status_code": 200,
      "error": null,
      "total_count": 3000000,
      "has_next": true
    },
    {
      "page": 2581,
      "execution_time_ms": 598.6778736114502,
      "query_count": 2,
      "result_count": 50,
      "status_code": 200,
      "error": null,
      "total_count": 3000000,
      "has_next": true
    },
    {
      "page": 2812,
      "execution_time_ms": 647.512674331665,
      "query_count": 2,
      "result_count": 50,
      "status_code": 200,
      "error": null,
      "total_count": 3000000,
      "has_next": true
    },
    {
      "page": 3000,
      "execution_time_ms": 682.7661991119385,
      "query_count": 2,
      "result_count": 50,
      "status_code": 200,
      "error": null,
      "total_count": 3000000,
      "has_next": true
    }
  ]
}